…
> mean(AGE[female==1])
[1] 42.71629
> 
> sd(AGE[female==1])
[1] 23.72012
> 
> mean(AGE[!female])
[1] 40.35398
> 
> sd(AGE[!female])
[1] 23.1098
> 
> list(acs2017_ny)
[[1]]
# A tibble: 196,585 x 109
     AGE female educ_nohs educ_hs educ_somecoll educ_college educ_advdeg SCHOOL EDUC  EDUCD
   <dbl>  <dbl>     <dbl>   <dbl>         <dbl>        <dbl>       <dbl> <fct>  <fct> <fct>
 1    72      1         0       0             0            0           1 No, n~ 5+ y~ Mast~
 2    72      0         0       0             0            0           1 No, n~ 5+ y~ Doct~
 3    31      0         0       0             0            1           0 No, n~ 4 ye~ Bach~
 4    28      1         0       0             0            1           0 No, n~ 4 ye~ Bach~
 5    54      0         0       0             0            0           1 No, n~ 5+ y~ Mast~
 6    45      1         0       1             0            0           0 No, n~ Grad~ Regu~
 7    84      1         0       0             1            0           0 Yes, ~ 2 ye~ Asso~
 8    71      0         0       0             0            1           0 No, n~ 4 ye~ Bach~
 9    68      1         0       0             1            0           0 No, n~ 2 ye~ Asso~
10    37      1         1       0             0            0           0 No, n~ Grad~ Grad~
# ... with 196,575 more rows, and 99 more variables: DEGFIELD <fct>, DEGFIELDD <fct>,
#   DEGFIELD2 <fct>, DEGFIELD2D <fct>, PUMA <dbl>, GQ <int>, OWNERSHP <int>, OWNERSHPD <int>,
#   MORTGAGE <int>, OWNCOST <dbl>, RENT <dbl>, COSTELEC <dbl>, COSTGAS <dbl>, COSTWATR <dbl>,
#   COSTFUEL <dbl>, HHINCOME <dbl>, FOODSTMP <int>, LINGISOL <int>, ROOMS <int>,
#   BUILTYR2 <int>, UNITSSTR <int>, FUELHEAT <int>, SSMC <int>, FAMSIZE <int>, NCHILD <int>,
#   NCHLT5 <int>, RELATE <int>, RELATED <int>, MARST <int>, RACE <int>, RACED <int>,
#   HISPAN <int>, HISPAND <int>, BPL <fct>, BPLD <fct>, ANCESTR1 <fct>, ANCESTR1D <fct>,
#   ANCESTR2 <fct>, ANCESTR2D <fct>, CITIZEN <int>, YRSUSA1 <dbl>, HCOVANY <int>,
#   HCOVPRIV <int>, SEX <fct>, EMPSTAT <int>, EMPSTATD <int>, LABFORCE <int>, OCC <fct>,
…
